-------------------------------------------------------------------------------
Test set: com.bh10.project.shorttermjobs.service.ReportServiceTest
-------------------------------------------------------------------------------
Tests run: 4, Failures: 0, Errors: 0, Skipped: 0, Time elapsed: 0.004 sec
