<?xml version="1.0" encoding="UTF-8" ?>
<testsuite tests="27" failures="0" name="com.bh10.project.shorttermjobs.service.ProfileServiceTest" time="0.076" errors="0" skipped="0">
  <properties>
    <property name="java.runtime.name" value="Java(TM) SE Runtime Environment"/>
    <property name="sun.boot.library.path" value="C:\Program Files\Java\jdk1.8.0_211\jre\bin"/>
    <property name="java.vm.version" value="25.211-b12"/>
    <property name="java.vm.vendor" value="Oracle Corporation"/>
    <property name="maven.multiModuleProjectDirectory" value="C:\Users\belak\Documents\NetBeansProjects\NewProjects\ShortTermJobs"/>
    <property name="java.vendor.url" value="http://java.oracle.com/"/>
    <property name="path.separator" value=";"/>
    <property name="guice.disable.misplaced.annotation.check" value="true"/>
    <property name="java.vm.name" value="Java HotSpot(TM) 64-Bit Server VM"/>
    <property name="file.encoding.pkg" value="sun.io"/>
    <property name="user.script" value=""/>
    <property name="user.country" value="HU"/>
    <property name="sun.java.launcher" value="SUN_STANDARD"/>
    <property name="sun.os.patch.level" value=""/>
    <property name="java.vm.specification.name" value="Java Virtual Machine Specification"/>
    <property name="user.dir" value="C:\Users\belak\Documents\NetBeansProjects\NewProjects\ShortTermJobs"/>
    <property name="java.runtime.version" value="1.8.0_211-b12"/>
    <property name="java.awt.graphicsenv" value="sun.awt.Win32GraphicsEnvironment"/>
    <property name="java.endorsed.dirs" value="C:\Program Files\Java\jdk1.8.0_211\jre\lib\endorsed"/>
    <property name="os.arch" value="amd64"/>
    <property name="java.io.tmpdir" value="C:\Users\belak\AppData\Local\Temp\"/>
    <property name="line.separator" value="
"/>
    <property name="java.vm.specification.vendor" value="Oracle Corporation"/>
    <property name="user.variant" value=""/>
    <property name="os.name" value="Windows 10"/>
    <property name="maven.ext.class.path" value="C:\Program Files\NetBeans 8.2\java\maven-nblib\netbeans-eventspy.jar"/>
    <property name="classworlds.conf" value="C:\Program Files\KulsoEgysegek_Programozas\apache-maven-3.6.1\bin\..\bin\m2.conf"/>
    <property name="sun.jnu.encoding" value="Cp1250"/>
    <property name="java.library.path" value="C:\Program Files\Java\jdk1.8.0_211\bin;C:\Windows\Sun\Java\bin;C:\Windows\system32;C:\Windows;C:\oraclexe\app\oracle\product\10.2.0\server\bin;C:\Program Files (x86)\Common Files\Oracle\Java\javapath;C:\Windows\system32;C:\Windows;C:\Windows\System32\Wbem;C:\Windows\System32\WindowsPowerShell\v1.0\;C:\Windows\System32\OpenSSH\;C:\Program Files\NVIDIA Corporation\NVIDIA NvDLISR;C:\Program Files (x86)\NVIDIA Corporation\PhysX\Common;C:\Program Files\SourceGear\Common\DiffMerge\;D:\Git\cmd;C:\Program Files\KulsoEgysegek_Programozas\apache-maven-3.6.1\bin;C:\Program Files\MySQL\MySQL Shell 8.0\bin\;C:\Users\belak\AppData\Local\Programs\Microsoft VS Code\bin;."/>
    <property name="maven.conf" value="C:\Program Files\KulsoEgysegek_Programozas\apache-maven-3.6.1\bin\../conf"/>
    <property name="java.specification.name" value="Java Platform API Specification"/>
    <property name="java.class.version" value="52.0"/>
    <property name="sun.management.compiler" value="HotSpot 64-Bit Tiered Compilers"/>
    <property name="os.version" value="10.0"/>
    <property name="library.jansi.path" value="C:\Program Files\KulsoEgysegek_Programozas\apache-maven-3.6.1\bin\..\lib\jansi-native"/>
    <property name="user.home" value="C:\Users\belak"/>
    <property name="user.timezone" value="Europe/Prague"/>
    <property name="java.awt.printerjob" value="sun.awt.windows.WPrinterJob"/>
    <property name="java.specification.version" value="1.8"/>
    <property name="file.encoding" value="UTF-8"/>
    <property name="user.name" value="belak"/>
    <property name="java.class.path" value="C:\Program Files\KulsoEgysegek_Programozas\apache-maven-3.6.1\bin\..\boot\plexus-classworlds-2.6.0.jar"/>
    <property name="java.vm.specification.version" value="1.8"/>
    <property name="sun.arch.data.model" value="64"/>
    <property name="java.home" value="C:\Program Files\Java\jdk1.8.0_211\jre"/>
    <property name="sun.java.command" value="org.codehaus.plexus.classworlds.launcher.Launcher -Dmaven.ext.class.path=C:\Program Files\NetBeans 8.2\java\maven-nblib\netbeans-eventspy.jar -Dfile.encoding=UTF-8 clean install"/>
    <property name="java.specification.vendor" value="Oracle Corporation"/>
    <property name="user.language" value="hu"/>
    <property name="awt.toolkit" value="sun.awt.windows.WToolkit"/>
    <property name="java.vm.info" value="mixed mode"/>
    <property name="java.version" value="1.8.0_211"/>
    <property name="java.ext.dirs" value="C:\Program Files\Java\jdk1.8.0_211\jre\lib\ext;C:\Windows\Sun\Java\lib\ext"/>
    <property name="sun.boot.class.path" value="C:\Program Files\Java\jdk1.8.0_211\jre\lib\resources.jar;C:\Program Files\Java\jdk1.8.0_211\jre\lib\rt.jar;C:\Program Files\Java\jdk1.8.0_211\jre\lib\sunrsasign.jar;C:\Program Files\Java\jdk1.8.0_211\jre\lib\jsse.jar;C:\Program Files\Java\jdk1.8.0_211\jre\lib\jce.jar;C:\Program Files\Java\jdk1.8.0_211\jre\lib\charsets.jar;C:\Program Files\Java\jdk1.8.0_211\jre\lib\jfr.jar;C:\Program Files\Java\jdk1.8.0_211\jre\classes"/>
    <property name="java.vendor" value="Oracle Corporation"/>
    <property name="maven.home" value="C:\Program Files\KulsoEgysegek_Programozas\apache-maven-3.6.1\bin\.."/>
    <property name="file.separator" value="\"/>
    <property name="java.vendor.url.bug" value="http://bugreport.sun.com/bugreport/"/>
    <property name="sun.cpu.endian" value="little"/>
    <property name="sun.io.unicode.encoding" value="UnicodeLittle"/>
    <property name="sun.desktop" value="windows"/>
    <property name="sun.cpu.isalist" value="amd64"/>
  </properties>
  <testcase classname="com.bh10.project.shorttermjobs.service.ProfileServiceTest" name="testDeleteSoftSkill" time="0.046"/>
  <testcase classname="com.bh10.project.shorttermjobs.service.ProfileServiceTest" name="testFindUserByPrincipal" time="0.002"/>
  <testcase classname="com.bh10.project.shorttermjobs.service.ProfileServiceTest" name="testUpdatePersonalDatas" time="0.002"/>
  <testcase classname="com.bh10.project.shorttermjobs.service.ProfileServiceTest" name="testCreateNewSoftSkillByJobApplicant" time="0.001"/>
  <testcase classname="com.bh10.project.shorttermjobs.service.ProfileServiceTest" name="testDeleteLanguage" time="0.001"/>
  <testcase classname="com.bh10.project.shorttermjobs.service.ProfileServiceTest" name="testUpdateLanguageById" time="0"/>
  <testcase classname="com.bh10.project.shorttermjobs.service.ProfileServiceTest" name="testGetUserTypeIdByPrincipal" time="0.001"/>
  <testcase classname="com.bh10.project.shorttermjobs.service.ProfileServiceTest" name="testUpdateEducationById" time="0.001"/>
  <testcase classname="com.bh10.project.shorttermjobs.service.ProfileServiceTest" name="testDeleteHardSkill" time="0.001"/>
  <testcase classname="com.bh10.project.shorttermjobs.service.ProfileServiceTest" name="testCreateNewLanguageByJobApplicant" time="0"/>
  <testcase classname="com.bh10.project.shorttermjobs.service.ProfileServiceTest" name="testUpdateSoftSkillById" time="0"/>
  <testcase classname="com.bh10.project.shorttermjobs.service.ProfileServiceTest" name="testFindSofSkillById" time="0.002"/>
  <testcase classname="com.bh10.project.shorttermjobs.service.ProfileServiceTest" name="testUpdateHardSkillById" time="0.001"/>
  <testcase classname="com.bh10.project.shorttermjobs.service.ProfileServiceTest" name="testCreateNewEducation" time="0.001"/>
  <testcase classname="com.bh10.project.shorttermjobs.service.ProfileServiceTest" name="testDeleteEducation" time="0.001"/>
  <testcase classname="com.bh10.project.shorttermjobs.service.ProfileServiceTest" name="testGetUserTypeIdByUserId" time="0"/>
  <testcase classname="com.bh10.project.shorttermjobs.service.ProfileServiceTest" name="testCreateNewExperience" time="0.001"/>
  <testcase classname="com.bh10.project.shorttermjobs.service.ProfileServiceTest" name="testFindUserById" time="0.001"/>
  <testcase classname="com.bh10.project.shorttermjobs.service.ProfileServiceTest" name="testFindHardSkillByUserId" time="0.002"/>
  <testcase classname="com.bh10.project.shorttermjobs.service.ProfileServiceTest" name="testUpdateExperienceById" time="0.001"/>
  <testcase classname="com.bh10.project.shorttermjobs.service.ProfileServiceTest" name="testFindUserByEmail" time="0.001"/>
  <testcase classname="com.bh10.project.shorttermjobs.service.ProfileServiceTest" name="testFindExperienceByUserId" time="0.002"/>
  <testcase classname="com.bh10.project.shorttermjobs.service.ProfileServiceTest" name="testCreateNewHardSkillByJobApplicant" time="0.001"/>
  <testcase classname="com.bh10.project.shorttermjobs.service.ProfileServiceTest" name="testDeleteExperience" time="0.001"/>
  <testcase classname="com.bh10.project.shorttermjobs.service.ProfileServiceTest" name="testFindLanguageByUserId" time="0.002"/>
  <testcase classname="com.bh10.project.shorttermjobs.service.ProfileServiceTest" name="testFindDataByUserId" time="0.001"/>
  <testcase classname="com.bh10.project.shorttermjobs.service.ProfileServiceTest" name="testFindEducationByUserId" time="0.003"/>
</testsuite>