com\bh10\project\shorttermjobs\dto\EmployerDataDto.class
com\bh10\project\shorttermjobs\servlet\EditProfileServlet.class
com\bh10\project\shorttermjobs\service\EmployerProfileService.class
com\bh10\project\shorttermjobs\dto\TestDto.class
com\bh10\project\shorttermjobs\servlet\ReportServlet.class
com\bh10\project\shorttermjobs\service\ImageUploadService.class
com\bh10\project\shorttermjobs\service\ReportService.class
com\bh10\project\shorttermjobs\dao\GroupDAO.class
com\bh10\project\shorttermjobs\mapper\HardSkillMapper.class
com\bh10\project\shorttermjobs\servlet\CreateAdvertisementServlet.class
com\bh10\project\shorttermjobs\mapper\LanguageMapper.class
com\bh10\project\shorttermjobs\dao\HardSkillDAO.class
com\bh10\project\shorttermjobs\mapper\SoftSkillMapper.class
com\bh10\project\shorttermjobs\entity\ReportEntity.class
com\bh10\project\shorttermjobs\servlet\DisplayImageServlet.class
com\bh10\project\shorttermjobs\dto\ExperienceDto.class
com\bh10\project\shorttermjobs\entity\AdvertisementEntity.class
com\bh10\project\shorttermjobs\entity\TestEntity.class
com\bh10\project\shorttermjobs\entity\JobApplicantDataEntity.class
com\bh10\project\shorttermjobs\entity\UserTypeEntity.class
com\bh10\project\shorttermjobs\dao\SoftSkillDAO.class
com\bh10\project\shorttermjobs\service\UserTypeService.class
com\bh10\project\shorttermjobs\servlet\MyAdvertisementsServlet.class
com\bh10\project\shorttermjobs\dto\ReportDto.class
com\bh10\project\shorttermjobs\servlet\ApplyServlet.class
com\bh10\project\shorttermjobs\dto\UserTypeDto.class
com\bh10\project\shorttermjobs\service\GroupService.class
com\bh10\project\shorttermjobs\dto\ReviewDto.class
com\bh10\project\shorttermjobs\exception\UserAlreadyReportedThisException.class
com\bh10\project\shorttermjobs\servlet\FileUploadHandlerServlet.class
com\bh10\project\shorttermjobs\service\StjUserService.class
com\bh10\project\shorttermjobs\service\ProfileService.class
com\bh10\project\shorttermjobs\dao\EducationDAO.class
com\bh10\project\shorttermjobs\dto\JobApplicantDataDto.class
com\bh10\project\shorttermjobs\dao\LanguageDAO.class
com\bh10\project\shorttermjobs\entity\GroupEntity.class
com\bh10\project\shorttermjobs\mapper\EducationMapper.class
com\bh10\project\shorttermjobs\entity\EmployerDataEntity.class
com\bh10\project\shorttermjobs\entity\StjUserEntity.class
com\bh10\project\shorttermjobs\entity\EducationEntity.class
com\bh10\project\shorttermjobs\exception\UserAlreadyAppliedException.class
com\bh10\project\shorttermjobs\service\AdvertisementService.class
com\bh10\project\shorttermjobs\dto\StjUserDto.class
com\bh10\project\shorttermjobs\service\ApplicationService.class
com\bh10\project\shorttermjobs\dto\SoftSkillDto.class
com\bh10\project\shorttermjobs\servlet\CreateAdminServlet.class
com\bh10\project\shorttermjobs\mapper\ExperienceMapper.class
com\bh10\project\shorttermjobs\servlet\RegistrationServlet.class
com\bh10\project\shorttermjobs\entity\ExperienceEntity.class
com\bh10\project\shorttermjobs\dao\AdvertisementDAO.class
com\bh10\project\shorttermjobs\servlet\AdvertisementServlet.class
com\bh10\project\shorttermjobs\dto\EducationDto.class
com\bh10\project\shorttermjobs\entity\ReviewEntity.class
com\bh10\project\shorttermjobs\mapper\StjUserMapper.class
com\bh10\project\shorttermjobs\dao\ApplicationDAO.class
com\bh10\project\shorttermjobs\servlet\CheckMyApplicationsServlet.class
com\bh10\project\shorttermjobs\entity\HardSkillEntity.class
com\bh10\project\shorttermjobs\dao\ExperienceDAO.class
com\bh10\project\shorttermjobs\mapper\ApplicationMapper.class
com\bh10\project\shorttermjobs\servlet\EditCompanyProfileServlet.class
com\bh10\project\shorttermjobs\servlet\LogoutServlet.class
com\bh10\project\shorttermjobs\servlet\ProfileServlet.class
com\bh10\project\shorttermjobs\dto\GroupDto.class
com\bh10\project\shorttermjobs\entity\LanguageEntity.class
com\bh10\project\shorttermjobs\mapper\EmployerDataMapper.class
com\bh10\project\shorttermjobs\mapper\JobApplicantDataMapper.class
com\bh10\project\shorttermjobs\dto\ApplicationDto.class
com\bh10\project\shorttermjobs\exception\EmailIsUsedException.class
com\bh10\project\shorttermjobs\servlet\ReportAdvertisementServlet.class
com\bh10\project\shorttermjobs\entity\SoftSkillEntity.class
com\bh10\project\shorttermjobs\dao\StjUserDAO.class
com\bh10\project\shorttermjobs\dao\UserTypeDAO.class
com\bh10\project\shorttermjobs\dto\HardSkillDto.class
com\bh10\project\shorttermjobs\dao\JobApplicantDataDAO.class
com\bh10\project\shorttermjobs\entity\ApplicationEntity.class
com\bh10\project\shorttermjobs\mapper\AdvertisementMapper.class
com\bh10\project\shorttermjobs\dao\EmployerDataDAO.class
com\bh10\project\shorttermjobs\dao\ReportDAO.class
com\bh10\project\shorttermjobs\dto\LanguageDto.class
com\bh10\project\shorttermjobs\dto\AdvertisementDto.class
com\bh10\project\shorttermjobs\exception\UserHasNoApplicationException.class
com\bh10\project\shorttermjobs\mapper\ReportMapper.class
