C:\Users\belak\Documents\NetBeansProjects\NewProjects\ShortTermJobs\src\test\java\com\bh10\project\shorttermjobs\service\EmployerProfileServiceTest.java
C:\Users\belak\Documents\NetBeansProjects\NewProjects\ShortTermJobs\src\test\java\com\bh10\project\shorttermjobs\service\ProfileServiceTest.java
C:\Users\belak\Documents\NetBeansProjects\NewProjects\ShortTermJobs\src\test\java\com\bh10\project\shorttermjobs\service\AdvertisementServiceTest.java
C:\Users\belak\Documents\NetBeansProjects\NewProjects\ShortTermJobs\src\test\java\com\bh10\project\shorttermjobs\service\ApplicationServiceTest.java
C:\Users\belak\Documents\NetBeansProjects\NewProjects\ShortTermJobs\src\test\java\com\bh10\project\shorttermjobs\service\GroupServiceTest.java
C:\Users\belak\Documents\NetBeansProjects\NewProjects\ShortTermJobs\src\test\java\com\bh10\project\shorttermjobs\service\ReportServiceTest.java
C:\Users\belak\Documents\NetBeansProjects\NewProjects\ShortTermJobs\src\test\java\com\bh10\project\shorttermjobs\service\ImageUploadServiceTest.java
C:\Users\belak\Documents\NetBeansProjects\NewProjects\ShortTermJobs\src\test\java\com\bh10\project\shorttermjobs\service\StjUserServiceTest.java
C:\Users\belak\Documents\NetBeansProjects\NewProjects\ShortTermJobs\src\test\java\com\bh10\project\shorttermjobs\service\UserTypeServiceTest.java
